{
  "type": "message_create",
  "id": "1234858592",
  "created_timestamp": "1392078023603",
  "initiated_via": {
    "tweet_id": "123456",
    "welcome_message_id": "456789"
  },
  "message_create": {
    "target": {
      "recipient_id": "1234858592"
    },
    "sender_id": "3805104374",
    "source_app_id": "268278",
    "message_data": {
      "text": "Blue Bird",
      "entities": {
        "hashtags": [],
        "symbols": [],
        "urls": [],
        "user_mentions": []
      },
      "quick_reply_response": {
        "type": "options",
        "metadata": "external_id_2"
      },
      "attachment": {
        "type": "media",
        "media": {}
      }
    }
  }
}
